定制音影,#genre#

CCTV-1HD,http://hms2944nc1972666638.live.aikan.miguvideo.com/wh7f454c46tw1580954862_989339440/wd_r2/cctv/cctv1hd/2500/01.m3u8?msisdn=guest&Channel_ID=0119_04102000-99000_400300000040002&client_ip=139.198.127.250&timestamp=20230816073730&ContentId=265183188&timezone=UTC&mtv_session=70e0f8e2241f03fbb284fe07471c1406&HlsSubType=1&HlsProfileId=1&nphaid=0&encrypt=a8389d6ec822d0e298d3b92aa95fa266
CCTV-1HD,http://hms2944nc1972666638.live.aikan.miguvideo.com/wh7f454c46tw1581250417_885644752/wd_r2/cctv/cctv1hd/1200/01.m3u8?msisdn=guest&Channel_ID=0119_04102000-99000_400300000040002&client_ip=139.198.127.250&timestamp=20230816073731&ContentId=265183188&timezone=UTC&mtv_session=daa1da1586a901a8da2361a3c74fb673&HlsSubType=1&HlsProfileId=1&nphaid=0&encrypt=7ebdf5c15cb6d83de8422d8a58468f02
CCTV-2HD,http://hms2944nc1972666637.live.aikan.miguvideo.com/wh7f454c46tw1581514102_1458964604/wd_r2/cctv/cctv2hd/3000/01.m3u8?msisdn=guest&Channel_ID=0119_04102000-99000_400300000040002&client_ip=139.198.127.250&timestamp=20230816073731&ContentId=265667329&timezone=UTC&mtv_session=0652a49abec4c860e1b09ad88db72dc8&HlsSubType=1&HlsProfileId=1&nphaid=0&encrypt=3816442679b4c149e40771e4b7b870cb
CCTV-3HD,http://hms2844nc1972666627.live.aikan.miguvideo.com/wh7f454c46tw1581797368_796839580/wd_r2/ocn/cctv3hd/3000/01.m3u8?msisdn=guest&Channel_ID=0119_04102000-99000_400300000040002&client_ip=139.198.127.250&timestamp=20230816073731&ContentId=265667206&timezone=UTC&mtv_session=930288b6183258a028c1df87d499752c&HlsSubType=1&HlsProfileId=1&nphaid=0&encrypt=4fe4ab3b93d2b7f4fe74cdc14f0914bb
CCTV-4HD,http://hms2944nc1972666638.live.aikan.miguvideo.com/wh7f454c46tw1582083769_-1437579634/wd_r2/cctv/cctv4hd/3000/01.m3u8?msisdn=guest&Channel_ID=0119_04102000-99000_400300000040002&client_ip=139.198.127.250&timestamp=20230816073732&ContentId=265667639&timezone=UTC&mtv_session=bd66c8df11d2f77bee645f53f4ed7362&HlsSubType=1&HlsProfileId=1&nphaid=0&encrypt=c2b1baee99eab7588b8ea53f584c3bb1
CCTV-5HD,http://hms2844nc1972666627.live.aikan.miguvideo.com/wh7f454c46tw1582982132_-1228252651/wd_r2/cctv/cctv5hdnew/2500/01.m3u8?msisdn=guest&Channel_ID=0119_04102000-99000_400300000040002&client_ip=139.198.127.250&timestamp=20230816073732&ContentId=265667565&timezone=UTC&mtv_session=9723de29a88e2be1095d8c6d5a75dee9&HlsSubType=1&HlsProfileId=1&nphaid=0&encrypt=12723843ed39c650d67a569eb896dd81
CCTV-5HD,http://hms2864nc1972666630.live.aikan.miguvideo.com/wh7f454c46tw1583280123_-1034945773/wd_r2/cctv/cctv5hdnew/1200/01.m3u8?msisdn=guest&Channel_ID=0119_04102000-99000_400300000040002&client_ip=139.198.127.250&timestamp=20230816073733&ContentId=265667565&timezone=UTC&mtv_session=8f0bdd602a18ee761127cc159afcecfb&HlsSubType=1&HlsProfileId=1&nphaid=0&encrypt=2b2cde70d9706cbeb708efa172ae54ff

CCTV-6HD,http://hms2944nc1972666638.live.aikan.miguvideo.com/wh7f454c46tw1584168866_889700348/wd_r2/ocn/cctv6hd/3000/01.m3u8?msisdn=guest&Channel_ID=0119_04102000-99000_400300000040002&client_ip=139.198.127.250&timestamp=20230816073734&ContentId=265667482&timezone=UTC&mtv_session=f70082b1ade8cb422547681dfcdad578&HlsSubType=1&HlsProfileId=1&nphaid=0&encrypt=3197a71757b802dc65f32626eb2ec8dd
CCTV-7HD,http://hms2864nc1972666630.live.aikan.miguvideo.com/wh7f454c46tw1584449189_-1771078739/migu/kailu/20200324/cctv7hd/57/01.m3u8?msisdn=guest&Channel_ID=0119_04102000-99000_400300000040002&client_ip=139.198.127.250&timestamp=20230816073734&ContentId=265667268&timezone=UTC&mtv_session=dac68d68c1a7bfb5fce6e52fcae95b03&HlsSubType=1&HlsProfileId=1&nphaid=0&encrypt=011fdc0d9d5b681821c2be70c08216b1
CCTV-8HD,http://hms2844nc1972666628.live.aikan.miguvideo.com/wh7f454c46tw1584743785_1819567660/wd_r2/ocn/cctv8hd/3000/01.m3u8?msisdn=guest&Channel_ID=0119_04102000-99000_400300000040002&client_ip=139.198.127.250&timestamp=20230816073734&ContentId=265667466&timezone=UTC&mtv_session=f134ad943219a0326cf721cd778880da&HlsSubType=1&HlsProfileId=1&nphaid=0&encrypt=d7e74f98dc5df6c18673696da1cb0fc7
CCTV-9HD,http://hms2904nc1972666633.live.aikan.miguvideo.com/wh7f454c46tw1585021209_2146650853/migu/kailu/20200324/cctv9hd/57/01.m3u8?msisdn=guest&Channel_ID=0119_04102000-99000_400300000040002&client_ip=139.198.127.250&timestamp=20230816073734&ContentId=265667202&timezone=UTC&mtv_session=3b457b5d48dfa5bec1b31c42bdc38890&HlsSubType=1&HlsProfileId=1&nphaid=0&encrypt=4831b14f9cf512f5bf6964b103251dc9
CCTV-10HD,http://hms2844nc1972666628.live.aikan.miguvideo.com/wh7f454c46tw1585335959_654961635/wd_r2/ocn/cctv10hd/3000/01.m3u8?msisdn=guest&Channel_ID=0119_04102000-99000_400300000040002&client_ip=139.198.127.250&timestamp=20230816073735&ContentId=265667631&timezone=UTC&mtv_session=2b68379f8365805b0723de44fb722ac4&HlsSubType=1&HlsProfileId=1&nphaid=0&encrypt=b8a484d39ecc065fa7a374c4a21467e9
CCTV-11HD,http://hms2864nc1972666630.live.aikan.miguvideo.com/wh7f454c46tw1585598366_-481653261/migu/kailu/cctv11hd/57/20200103/01.m3u8?msisdn=guest&Channel_ID=0119_04102000-99000_400300000040002&client_ip=139.198.127.250&timestamp=20230816073735&ContentId=265667429&timezone=UTC&mtv_session=4b2a1a34470a2292a3b6b8defdd19dc8&HlsSubType=1&HlsProfileId=1&nphaid=0&encrypt=f5c6b917bd6664cd3abf93c9a779b8bf
CCTV-12HD,http://hms2944nc1972666637.live.aikan.miguvideo.com/wh7f454c46tw1585892033_-953434305/migu/kailu/20200324/cctv12hd/57/01.m3u8?msisdn=guest&Channel_ID=0119_04102000-99000_400300000040002&client_ip=139.198.127.250&timestamp=20230816073735&ContentId=265667607&timezone=UTC&mtv_session=04a047571867297b61308196c0b61be4&HlsSubType=1&HlsProfileId=1&nphaid=0&encrypt=6f196fd01444dfaf9d9ea5d0cc8ecc01
CCTV-13HD,http://hms2944nc1972666638.live.aikan.miguvideo.com/wh7f454c46tw1586189138_-1841939918/envivo_x/2018/SD/cctv13/2000/01.m3u8?msisdn=guest&Channel_ID=0119_04102000-99000_400300000040002&client_ip=139.198.127.250&timestamp=20230816073736&ContentId=265667474&timezone=UTC&mtv_session=8007a0a816a3740025b4925aeae306b3&HlsSubType=1&HlsProfileId=1&nphaid=0&encrypt=9ef05645ea51ea0bcfe8d603b748a30e
CCTV-14HD,http://hms2924nc1972666636.live.aikan.miguvideo.com/wh7f454c46tw1586468724_862335566/wd_r2/ocn/cctv14hd/3000/01.m3u8?msisdn=guest&Channel_ID=0119_04102000-99000_400300000040002&client_ip=139.198.127.250&timestamp=20230816073736&ContentId=265667325&timezone=UTC&mtv_session=d69ff4fc771dd3f04825ad6d23121aa0&HlsSubType=1&HlsProfileId=1&nphaid=0&encrypt=e145be999fb1457e94c38e728570b97e
CCTV-15HD,http://hms2864nc1972666630.live.aikan.miguvideo.com/wh7f454c46tw1586792991_-195972221/migu/kailu/20200324/cctv15hd/57/01.m3u8?msisdn=guest&Channel_ID=0119_04102000-99000_400300000040002&client_ip=139.198.127.250&timestamp=20230816073736&ContentId=265667535&timezone=UTC&mtv_session=5229243a54883745a550aaaa6f71126b&HlsSubType=1&HlsProfileId=1&nphaid=0&encrypt=324a9a20d7e080d5c25a85803c60add8
CCTV-17HD,http://hms2924nc1972666636.live.aikan.miguvideo.com/wh7f454c46tw1587065488_-544231819/migu/kailu/20200324/cctv17hd/57/01.m3u8?msisdn=guest&Channel_ID=0119_04102000-99000_400300000040002&client_ip=139.198.127.250&timestamp=20230816073737&ContentId=265667526&timezone=UTC&mtv_session=fce9a29d0fe15700731dd42b5514437c&HlsSubType=1&HlsProfileId=1&nphaid=0&encrypt=38e21fbccbeb7ce8cdeaf7c394b87ce1

CCTV-4欧洲,http://hms2864nc1972666630.live.aikan.miguvideo.com/wh7f454c46tw1582375949_203608310/migu/kailu/20200324/cctv4ouhd/57/01.m3u8?msisdn=guest&Channel_ID=0119_04102000-99000_400300000040002&client_ip=139.198.127.250&timestamp=20230816073732&ContentId=265667313&timezone=UTC&mtv_session=12bc39164397f10e5223af167f7534a1&HlsSubType=1&HlsProfileId=1&nphaid=0&encrypt=9d84e48895c7676c2037280dd67a8351
CCTV-4美洲,http://hms2944nc1972666638.live.aikan.miguvideo.com/wh7f454c46tw1582682240_-1402839824/migu/kailu/20200324/cctv4meihd/57/01.m3u8?msisdn=guest&Channel_ID=0119_04102000-99000_400300000040002&client_ip=139.198.127.250&timestamp=20230816073732&ContentId=265667335&timezone=UTC&mtv_session=361466f23b240ef7fb33d32f582f16e5&HlsSubType=1&HlsProfileId=1&nphaid=0&encrypt=0ecf0c5bd1bb66dff4d24e873e5c63ef

CCTV-5+HD,http://hms2944nc1972666638.live.aikan.miguvideo.com/wh7f454c46tw1583569220_1871236375/wd_r2/cctv/cctv5plusnew/1200/01.m3u8?msisdn=guest&Channel_ID=0119_04102000-99000_400300000040002&client_ip=139.198.127.250&timestamp=20230816073733&ContentId=265106763&timezone=UTC&mtv_session=58d355d22d80390d6d25dbd6f235e018&HlsSubType=1&HlsProfileId=1&nphaid=0&encrypt=9c4cfaf2b480fa47f51066d541e0a97a
CCTV-5+HD,http://hms2944nc1972666637.live.aikan.miguvideo.com/wh7f454c46tw1583876590_-1805575416/wd_r2/cctv/cctv5plusnew/2500/01.m3u8?msisdn=guest&Channel_ID=0119_04102000-99000_400300000040002&client_ip=139.198.127.250&timestamp=20230816073733&ContentId=265106763&timezone=UTC&mtv_session=1f5bd52f67ecd434a6cf3bd7ebc51a71&HlsSubType=1&HlsProfileId=1&nphaid=0&encrypt=08375028c68909716c1218fc91018199

CGTN西语,http://hms2904nc1972666633.live.aikan.miguvideo.com/wh7f454c46tw1587345813_482110171/envivo_v/2018/SD/cctv/xibanya/1000/01.m3u8?msisdn=guest&Channel_ID=0119_04102000-99000_400300000040002&client_ip=139.198.127.250&timestamp=20230816073737&ContentId=265218872&timezone=UTC&mtv_session=77cb0a926d2b93c105e811549cf499b3&HlsSubType=1&HlsProfileId=1&nphaid=0&encrypt=03d4607d5c9bfb5d66f170535cb3fbba
CGTN阿语,http://hms2904nc1972666633.live.aikan.miguvideo.com/wh7f454c46tw1587628749_-159090613/envivo_v/SD/cctv/alabo/1000/01.m3u8?msisdn=guest&Channel_ID=0119_04102000-99000_400300000040002&client_ip=139.198.127.250&timestamp=20230816073737&ContentId=265219154&timezone=UTC&mtv_session=d15843f3acb2d100ab402ea7a89e39ca&HlsSubType=1&HlsProfileId=1&nphaid=0&encrypt=440162df6b440ca2fd096a0c18261118

CHC家庭影院,http://hms2944nc1972666637.live.aikan.miguvideo.com/wh7f454c46tw1587902162_1768667353/wd_r3/cnr/chcjtyy/3000/01.m3u8?msisdn=guest&Channel_ID=0119_04102000-99000_400300000040002&client_ip=139.198.127.250&timestamp=20230816073737&ContentId=265667645&timezone=UTC&mtv_session=1e2626f9fa52e9ed0b3e629dab7d7ad3&HlsSubType=1&HlsProfileId=1&nphaid=0&encrypt=950d3a482d21f43d77d58540bfd2cbad
CHC家庭影院,http://113.207.84.199/session/e79b62dc-8b67-11ee-94c9-5254004d191c$h1.0$live.cbncdn.cn/pj9p9p/__cl/cg:live/__c/chcjtyyHD/__op/default/__f/index.m3u8?token=a1cc657290f79bc2e82763ebd0cd8dc3_1700979808_1700979808
CHC家庭影院,http://113.207.84.199/session/e79b62dc-8b67-11ee-94c9-5254004d191c$h1.0$live.cbncdn.cn/pj9p9p/__cl/cg:live/__c/chcjtyyHD/__op/default/__f/2/v4M/index.m3u8
CHC高清电影,http://113.207.84.199/session/274ae1aa-8b68-11ee-bcbe-5254006225bb$h1.0$live.cbncdn.cn/pj9p9p/__cl/cg:live/__c/chcgqdyHD/__op/default/__f/index.m3u8?token=89a305d0a89aa53bc61bdd94a7c2571b_1700980251_1700980251
CHC高清电影,http://113.207.84.199/session/274ae1aa-8b68-11ee-bcbe-5254006225bb$h1.0$live.cbncdn.cn/pj9p9p/__cl/cg:live/__c/chcgqdyHD/__op/default/__f/2/v4M/index.m3u8
CHC动作电影,http://113.207.84.200/session/58132df6-8b68-11ee-83eb-5254006225bb$h1.0$live.cbncdn.cn/pj9p9p/__cl/cg:live/__c/chcdzdyHD/__op/default/__f/index.m3u8?token=cade7bc6976b7720d51c2ab11de05cbf_1700985119_1700985119
CHC动作电影,http://113.207.84.200/session/58132df6-8b68-11ee-83eb-5254006225bb$h1.0$live.cbncdn.cn/pj9p9p/__cl/cg:live/__c/chcdzdyHD/__op/default/__f/2/v4M/index.m3u8

北京卫视HD,http://hms2944nc1972666637.live.aikan.miguvideo.com/wh7f454c46tw1588200355_-2136083744/ws_w/bjws/bjws3000/3000/01.m3u8?msisdn=guest&Channel_ID=0119_04102000-99000_400300000040002&client_ip=139.198.127.250&timestamp=20230816073738&ContentId=265668911&timezone=UTC&mtv_session=923b33c07808007ff4b7b8554ab56cb9&HlsSubType=1&HlsProfileId=1&nphaid=0&encrypt=b3b910e2f08747b18ff03b13155e96cb
东方卫视HD,http://hms2904nc1972666633.live.aikan.miguvideo.com/wh7f454c46tw1588472879_1818144718/wd_r4/dfl/dongfangwshd/1200/01.m3u8?msisdn=guest&Channel_ID=0119_04102000-99000_400300000040002&client_ip=139.198.127.250&timestamp=20230816073738&ContentId=264104266&timezone=UTC&mtv_session=b92530997e9df844d8ff90071c412ce1&HlsSubType=1&HlsProfileId=1&nphaid=0&encrypt=d69348c370f40e3d50d3d87148478bee
东方卫视HD,http://hms2944nc1972666638.live.aikan.miguvideo.com/wh7f454c46tw1588763278_-766408077/wd_r4/dfl/dongfangwshd/3000/01.m3u8?msisdn=guest&Channel_ID=0119_04102000-99000_400300000040002&client_ip=139.198.127.250&timestamp=20230816073738&ContentId=264104266&timezone=UTC&mtv_session=6b842c705e2cf7e9df14788ca8009ef5&HlsSubType=1&HlsProfileId=1&nphaid=0&encrypt=36ed1abbb2ec038b2f2303e58aea07a1
重庆卫视,http://hms2944nc1972666638.live.aikan.miguvideo.com/wh7f454c46tw1589064099_-704327727/envivo_x/2018/SD/chongqing/1000/01.m3u8?msisdn=guest&Channel_ID=0119_04102000-99000_400300000040002&client_ip=139.198.127.250&timestamp=20230816073739&ContentId=531262033&timezone=UTC&mtv_session=90df447b59006f4434fec2d4695f28a7&HlsSubType=1&HlsProfileId=1&nphaid=0&encrypt=8bbc2e41f5b3f80d0b069addb6f1df46
吉林卫视,http://hms2944nc1972666637.live.aikan.miguvideo.com/wh7f454c46tw1589344314_453295178/envivo_v/2018/SD/jilin/1000/01.m3u8?msisdn=guest&Channel_ID=0119_04102000-99000_400300000040002&client_ip=139.198.127.250&timestamp=20230816073739&ContentId=531262154&timezone=UTC&mtv_session=a8fd605fabf2ca0814b5a56aee04bc2d&HlsSubType=1&HlsProfileId=1&nphaid=0&encrypt=ec7257d80b3cd8e4a5590413a5e9cb93
辽宁卫视HD,http://hms2924nc1972666635.live.aikan.miguvideo.com/wh7f454c46tw1589644797_1577190639/wd_r2/ocn/liaoningwshd/3000/01.m3u8?msisdn=guest&Channel_ID=0119_04102000-99000_400300000040002&client_ip=139.198.127.250&timestamp=20230816073739&ContentId=265669068&timezone=UTC&mtv_session=4adbe497fcc87ddaaa343726a3a14c13&HlsSubType=1&HlsProfileId=1&nphaid=0&encrypt=b336009b46cc80be11d75c763cb6fe70
内蒙古卫视,http://hms2904nc1972666633.live.aikan.miguvideo.com/wh7f454c46tw1589932581_-415191449/envivo_w/2018/SD/neimeng/1000/01.m3u8?msisdn=guest&Channel_ID=0119_04102000-99000_400300000040002&client_ip=139.198.127.250&timestamp=20230816073739&ContentId=531261982&timezone=UTC&mtv_session=c9a5a27753539fa99cff7fe7b0773863&HlsSubType=1&HlsProfileId=1&nphaid=0&encrypt=f9d2e1fadbae161e8f9ee1c06f4b85df
宁夏卫视,http://hms2844nc1972666628.live.aikan.miguvideo.com/wh7f454c46tw1590245808_-2084121214/envivo_x/2018/SD/ningxia/1000/01.m3u8?msisdn=guest&Channel_ID=0119_04102000-99000_400300000040002&client_ip=139.198.127.250&timestamp=20230816073740&ContentId=531261057&timezone=UTC&mtv_session=83a38128827a852ce1724296852f857e&HlsSubType=1&HlsProfileId=1&nphaid=0&encrypt=17f4b89974b2ed1e654453d44f9968b1
甘肃卫视,http://hms2924nc1972666636.live.aikan.miguvideo.com/wh7f454c46tw1590536221_1219061924/envivo_v/2018/SD/gansu/1000/01.m3u8?msisdn=guest&Channel_ID=0119_04102000-99000_400300000040002&client_ip=139.198.127.250&timestamp=20230816073740&ContentId=531261933&timezone=UTC&mtv_session=c42270b736c7f7ad784d63391d3520bc&HlsSubType=1&HlsProfileId=1&nphaid=0&encrypt=9de29b7faceedf77d9b5796d2c8448a3
青海卫视,http://hms2924nc1972666635.live.aikan.miguvideo.com/wh7f454c46tw1590811433_1387778932/envivo_w/2018/SD/qinghai/1000/01.m3u8?msisdn=guest&Channel_ID=0119_04102000-99000_400300000040002&client_ip=139.198.127.250&timestamp=20230816073740&ContentId=531262027&timezone=UTC&mtv_session=449a36454b820ab73b61a8a33ccf5337&HlsSubType=1&HlsProfileId=1&nphaid=0&encrypt=aad202f94476c188a79dcc8e1ec1d2b5
山东卫视HD,http://hms2944nc1972666637.live.aikan.miguvideo.com/wh7f454c46tw1591381721_-1603694084/wd_r4/yg/shandongwshd/3000/01.m3u8?msisdn=guest&Channel_ID=0119_04102000-99000_400300000040002&client_ip=139.198.127.250&timestamp=20230816073741&ContentId=531261825&timezone=UTC&mtv_session=af16f8bbf042e18571b0c4dd8335d42c&HlsSubType=1&HlsProfileId=1&nphaid=0&encrypt=fb1405a16fc8244a94df4ac18675a58f
湖北卫视HD,http://hms2944nc1972666638.live.aikan.miguvideo.com/wh7f454c46tw1591694976_-107212910/migu/kailu/hubeiwshd/57/20220712/01.m3u8?msisdn=guest&Channel_ID=0119_04102000-99000_400300000040002&client_ip=139.198.127.250&timestamp=20230816073741&ContentId=531261978&timezone=UTC&mtv_session=437fc6e8d29c853ca88935e2fd49acea&HlsSubType=1&HlsProfileId=1&nphaid=0&encrypt=8d50581461bffa6a3d876b8cc8a1ebce
湖南卫视HD,http://hms2944nc1972666638.live.aikan.miguvideo.com/wh7f454c46tw1591995316_1587683132/wd-hunanhd-2500/01.m3u8?msisdn=guest&Channel_ID=0119_04102000-99000_400300000040002&client_ip=139.198.127.250&timestamp=20230816073741&ContentId=265667721&timezone=UTC&mtv_session=7b07894c57472651304a93669cf87e9b&HlsSubType=1&HlsProfileId=1&nphaid=0&encrypt=617e25748c5f12b7864cc6fb758deaa7
江西卫视HD,http://hms2844nc1972666627.live.aikan.miguvideo.com/wh7f454c46tw1592308998_-1889199081/migu/kailu/jxwshd/57/20190820/01.m3u8?msisdn=guest&Channel_ID=0119_04102000-99000_400300000040002&client_ip=139.198.127.250&timestamp=20230816073742&ContentId=531262091&timezone=UTC&mtv_session=de50cbe717aa7f99a96fffd956d81e51&HlsSubType=1&HlsProfileId=1&nphaid=0&encrypt=f8930b959a901748e45e2615bac60f75
江苏卫视HD,http://hms2924nc1972666636.live.aikan.miguvideo.com/wh7f454c46tw1592593248_1989329552/wd_r2/cctv/jiangsuhd/2500/01.m3u8?msisdn=guest&Channel_ID=0119_04102000-99000_400300000040002&client_ip=139.198.127.250&timestamp=20230816073742&ContentId=264104188&timezone=UTC&mtv_session=6bc8392c0ce046c4a27b0d812696e9f8&HlsSubType=1&HlsProfileId=1&nphaid=0&encrypt=a05b045f626d4764b5124f26a2f1d747
广东卫视HD,http://hms2924nc1972666636.live.aikan.miguvideo.com/wh7f454c46tw1592898240_-1957872936/ws_w/gdws/gdws3000/3000/01.m3u8?msisdn=guest&Channel_ID=0119_04102000-99000_400300000040002&client_ip=139.198.127.250&timestamp=20230816073742&ContentId=263541274&timezone=UTC&mtv_session=d190c97b4980b8b8fc8fe749d33c4b53&HlsSubType=1&HlsProfileId=1&nphaid=0&encrypt=d7d16b4dab836849b2d69de0c71c0881
广东卫视HD,http://hms2924nc1972666635.live.aikan.miguvideo.com/wh7f454c46tw1593177896_517539519/migu/kailu/gdwshd265/54/20200407/01.m3u8?msisdn=guest&Channel_ID=0119_04102000-99000_400300000040002&client_ip=139.198.127.250&timestamp=20230816073743&ContentId=263541274&timezone=UTC&mtv_session=4d4e96518e2e6558846eec1f7e8cb4c1&HlsSubType=1&HlsProfileId=1&nphaid=0&encrypt=cbba4b3db62cb6fb348d495ad003a2c8
大湾区卫视,http://hms2864nc1972666630.live.aikan.miguvideo.com/wh7f454c46tw1593455810_973699600/wd_r3/2018/nfmedia/nfws/1000/01.m3u8?msisdn=guest&Channel_ID=0119_04102000-99000_400300000040002&client_ip=139.198.127.250&timestamp=20230816073743&ContentId=265218882&timezone=UTC&mtv_session=69490e0f5d2243e8aa4627ecf0058de1&HlsSubType=1&HlsProfileId=1&nphaid=0&encrypt=095412c3a2f0236b02fe898002af482a
新疆卫视,http://hms2844nc1972666628.live.aikan.miguvideo.com/wh7f454c46tw1593800523_-1493781639/wd-xinjiangwssd-600/01.m3u8?msisdn=guest&Channel_ID=0119_04102000-99000_400300000040002&client_ip=139.198.127.250&timestamp=20230816073743&ContentId=531262095&timezone=UTC&mtv_session=864a45b4901ac5ef45e66eda73f46964&HlsSubType=1&HlsProfileId=1&nphaid=0&encrypt=2ecb1cbf330584c821ad5f41b74ff983
西藏卫视,http://hms2944nc1972666638.live.aikan.miguvideo.com/wh7f454c46tw1594087791_1409479634/envivo_x/2018/SD/xizang/1000/01.m3u8?msisdn=guest&Channel_ID=0119_04102000-99000_400300000040002&client_ip=139.198.127.250&timestamp=20230816073744&ContentId=524854265&timezone=UTC&mtv_session=5640f857e31349921ba36207946fa904&HlsSubType=1&HlsProfileId=1&nphaid=0&encrypt=df71711e34a615ea23f680ef139afb1d
海南卫视,http://hms2944nc1972666638.live.aikan.miguvideo.com/wh7f454c46tw1594363320_-990671769/envivo_x/SD/lvyou/711/01.m3u8?msisdn=guest&Channel_ID=0119_04102000-99000_400300000040002&client_ip=139.198.127.250&timestamp=20230816073744&ContentId=531262161&timezone=UTC&mtv_session=b55d04e0b5c7e772923fd49422a408a4&HlsSubType=1&HlsProfileId=1&nphaid=0&encrypt=97ea95aaf536edf9a57ca0219cadc011
四海钓鱼,http://hms2944nc1972666637.live.aikan.miguvideo.com/wh7f454c46tw1594642123_-1739463849/wd_r4/peoplecn/shdiaoyu/1200/01.m3u8?msisdn=guest&Channel_ID=0119_04102000-99000_400300000040002&client_ip=139.198.127.250&timestamp=20230816073744&ContentId=265667494&timezone=UTC&mtv_session=62fe26ea17a6225b620ad6528d069bad&HlsSubType=1&HlsProfileId=1&nphaid=0&encrypt=1dd468b7cedccd815604e427c9d0d8f7
江苏教育,http://hms2844nc1972666627.live.aikan.miguvideo.com/wh7f454c46tw1594948125_-1781652450/wd_r2/jstv/jsjiaoyu/600/01.m3u8?msisdn=guest&Channel_ID=0119_04102000-99000_400300000040002&client_ip=139.198.127.250&timestamp=20230816073744&ContentId=265219146&timezone=UTC&mtv_session=a16c1bfb5e088bbea01975f7a8082344&HlsSubType=1&HlsProfileId=1&nphaid=0&encrypt=3b8baea037f0011e4d3ad9db8c91f5cf
山东教育卫视,http://hms2844nc1972666628.live.aikan.miguvideo.com/wh7f454c46tw1595216303_855788936/envivo_v/2018/SD/shandongedu/1000/01.m3u8?msisdn=guest&Channel_ID=0119_04102000-99000_400300000040002&client_ip=139.198.127.250&timestamp=20230816073745&ContentId=265218942&timezone=UTC&mtv_session=5df7c38235f8bfddc40ba06656567aa2&HlsSubType=1&HlsProfileId=1&nphaid=0&encrypt=29623301ce35130c865d7d28c7f3b0c3
游戏风云HD,http://hms2904nc1972666633.live.aikan.miguvideo.com/wh7f454c46tw1595481830_-1185482178/wd_r2/ocn/youxifengyunhd/3000/01.m3u8?msisdn=guest&Channel_ID=0119_04102000-99000_400300000040002&client_ip=139.198.127.250&timestamp=20230816073745&ContentId=265667664&timezone=UTC&mtv_session=a0ecd5ce9d57ca6fe2f9a78dd80357fc&HlsSubType=1&HlsProfileId=1&nphaid=0&encrypt=238d629872f240eaaeb4749a58e17d18
天元围棋,http://hms2844nc1972666628.live.aikan.miguvideo.com/wh7f454c46tw1591088432_505084450/migu/kailu/shan3xiws/57/20220809/01.m3u8?msisdn=guest&Channel_ID=0119_04102000-99000_400300000040002&client_ip=139.198.127.250&timestamp=20230816073741&ContentId=531262099&timezone=UTC&mtv_session=3685f124271f5ee0b99269587b09cf4a&HlsSubType=1&HlsProfileId=1&nphaid=0&encrypt=25d01304c5d1e6f70cc33073ccfdaf0f
成龙作品集,http://hms2904nc1972666634.live.aikan.miguvideo.com/wh7f454c46tw1597833161_-605154292/wd_r2/virtuallive/5102010211/150/01.m3u8?msisdn=guest&Channel_ID=0119_04102000-99000_400300000040002&client_ip=139.198.127.250&timestamp=20230816073747&ContentId=265667553&timezone=UTC&mtv_session=fd80809f3f6b51a68ca8e0d327a5244a&HlsSubType=1&HlsProfileId=1&nphaid=0&encrypt=31de3cf7ce30887e13ddcfcdd39350a2
掼蛋精英赛,http://hms2844nc1972666627.live.aikan.miguvideo.com/wh7f454c46tw1598137381_-800475601/wd_r4/virtuallive/5101059662/150/01.m3u8?msisdn=guest&Channel_ID=0119_04102000-99000_400300000040002&client_ip=139.198.127.250&timestamp=20230816073748&ContentId=265667449&timezone=UTC&mtv_session=1f06490147bf0ef1556632d58c77b852&HlsSubType=1&HlsProfileId=1&nphaid=0&encrypt=e65a6cf52d4e7b37e781fbab9d02aaac
掼蛋精英赛,http://hms3542nc1972666710.live.aikan.miguvideo.com/wh7f454c46tw1598429516_539260722/wd_r4/virtuallive/5101059662/75/01.m3u8?msisdn=guest&Channel_ID=0119_04102000-99000_400300000040002&client_ip=139.198.127.250&timestamp=20230816073748&ContentId=265667449&timezone=UTC&mtv_session=227603b28af017ac99593529975c4ea8&HlsSubType=1&HlsProfileId=1&nphaid=0&encrypt=3fc8644a3708179d74852b84c7f3de83
高清大片,http://hms2884nc1972666631.live.aikan.miguvideo.com/wh7f454c46tw1598749465_-366256696/wd_r3/cctv/gaoqingdapian/600/01.m3u8?msisdn=guest&Channel_ID=0119_04102000-99000_400300000040002&client_ip=139.198.127.250&timestamp=20230816073748&ContentId=265218862&timezone=UTC&mtv_session=3a6b1c7737e83442360bc74c1db28160&HlsSubType=1&HlsProfileId=1&nphaid=0&encrypt=6c0357e0703b1ce5780f688addd61842
经典深圳旁边电影,http://hms2844nc1972666627.live.aikan.miguvideo.com/wh7f454c46tw1599032126_-227250245/wd_r2/virtuallive/5100180869/150/01.m3u8?msisdn=guest&Channel_ID=0119_04102000-99000_400300000040002&client_ip=139.198.127.250&timestamp=20230816073749&ContentId=265219029&timezone=UTC&mtv_session=f358762bcdc0d98e6da17359ed6dc2d2&HlsSubType=1&HlsProfileId=1&nphaid=0&encrypt=8daf635846c7955213792b55f33b0ed4
军事迷必看大片,http://hms2884nc1972666631.live.aikan.miguvideo.com/wh7f454c46tw1599321476_677368024/wd-virtuallive5100002089-150/01.m3u8?msisdn=guest&Channel_ID=0119_04102000-99000_400300000040002&client_ip=139.198.127.250&timestamp=20230816073749&ContentId=265218878&timezone=UTC&mtv_session=0ef16dd36c78ec6087cfdd9240dda4be&HlsSubType=1&HlsProfileId=1&nphaid=0&encrypt=59297ef87d5e48c3e92230975540fa04
热剧联播,http://hms2904nc1972666634.live.aikan.miguvideo.com/wh7f454c46tw1599904987_1263698555/wd_r3/cctv/rejulianbo/600/01.m3u8?msisdn=guest&Channel_ID=0119_04102000-99000_400300000040002&client_ip=139.198.127.250&timestamp=20230816073749&ContentId=265218955&timezone=UTC&mtv_session=d08622891788b7f58f17fe9ddfcf7760&HlsSubType=1&HlsProfileId=1&nphaid=0&encrypt=13902f5ffd15ce35b793e964458bc0a7
赛事最经典,http://hms2924nc1972666635.live.aikan.miguvideo.com/wh7f454c46tw1600189817_1240880411/wd_r3/cctv/saishijingdian/600/01.m3u8?msisdn=guest&Channel_ID=0119_04102000-99000_400300000040002&client_ip=139.198.127.250&timestamp=20230816073750&ContentId=265218921&timezone=UTC&mtv_session=ad75dc89299f0a12c357e9f06e860e18&HlsSubType=1&HlsProfileId=1&nphaid=0&encrypt=031c3d52bbccef1849631b126460966f
体坛名栏汇,http://hms2904nc1972666633.live.aikan.miguvideo.com/wh7f454c46tw1600458454_-832716323/wd_r3/cctv/titanminglan/600/01.m3u8?msisdn=guest&Channel_ID=0119_04102000-99000_400300000040002&client_ip=139.198.127.250&timestamp=20230816073750&ContentId=265218759&timezone=UTC&mtv_session=b2e617f735c59ee2def1e133e7a80a5c&HlsSubType=1&HlsProfileId=1&nphaid=0&encrypt=0c1268f6846ee93a05130bcd7741b787
新片放映厅,http://hms2904nc1972666634.live.aikan.miguvideo.com/wh7f454c46tw1600732348_-360169236/wd-virtuallive5100030975-150/01.m3u8?msisdn=guest&Channel_ID=0119_04102000-99000_400300000040002&client_ip=139.198.127.250&timestamp=20230816073750&ContentId=265218930&timezone=UTC&mtv_session=63000e2fea84d8a6504746c34e7d4d75&HlsSubType=1&HlsProfileId=1&nphaid=0&encrypt=b6ef40cfda8ddfec090a09afb9dd2444

浙江公共新闻,http://hw-m-l.cztv.com/channels/lantian/channel007/1080p.m3u8
浙江国际,http://hw-m-l.cztv.com/channels/lantian/channel010/1080p.m3u8
浙江少儿,http://hw-m-l.cztv.com/channels/lantian/channel008/1080p.m3u8
浙江教科影视,http://hw-m-l.cztv.com/channels/lantian/channel004/1080p.m3u8
浙江数码时代,http://hw-m-l.cztv.com/channels/lantian/channel012/1080p.m3u8
浙江民生休闲,http://hw-m-l.cztv.com/channels/lantian/channel006/1080p.m3u8
浙江经济生活,http://hw-m-l.cztv.com/channels/lantian/channel003/1080p.m3u8
浙江钱江频道,http://hw-m-l.cztv.com/channels/lantian/channel002/1080p.m3u8
内蒙古农牧频道,https://livestream-bt.nmtv.cn/nmtv/2320general.m3u8?txSecret=b5e44fcd9473993661f17746112ad1b7&txTime=771E8800
内蒙古蒙语卫视,https://livestream-bt.nmtv.cn/nmtv/2315general.m3u8?txSecret=e2b255285dd119a92c8aa5cdf00f8b84&txTime=771EF880
内蒙古蒙语文化,https://livestream-bt.nmtv.cn/nmtv/2321general.m3u8?txSecret=2250268a1d326dbbc4cbf0ba32649ca5&txTime=771E8800


#以下内容可以不用复制#
#本远程读取地址: https://gitee.com/chyp-info/my-sharing/raw/master/TV-DW01.txt #
#数据主要来源： http://tv.haoqu99.com/ #
#数据来源： http://www.lshitv.com/ #